{
    "Categories": "Qt;KDE;X-KDE-information;",
    "KPlugin": {
        "BugReportUrl": "https://bugs.kde.org/enter_bug.cgi?product=kinfocenter&component=general",
        "Description": "EGL information",
        "Description[ar]": "معلومات EGL",
        "Description[az]": "EGL məlumatı",
        "Description[bg]": "Информация за EGL",
        "Description[ca@valencia]": "Informació EGL",
        "Description[ca]": "Informació EGL",
        "Description[cs]": "Informace o EGL",
        "Description[de]": "Informationen zu EGL",
        "Description[en_GB]": "EGL information",
        "Description[es]": "Información sobre EGL",
        "Description[eu]": "EGLren informazioa",
        "Description[fi]": "EGL-tiedot",
        "Description[fr]": "Informations concernant EGL",
        "Description[ia]": "Information de EGL",
        "Description[id]": "Informasi EGL",
        "Description[it]": "Informazioni su EGL",
        "Description[ja]": "EGL の情報",
        "Description[ka]": "EGL-ის ინფორმაცია",
        "Description[ko]": "EGL 정보",
        "Description[nl]": "EGL-informatie",
        "Description[nn]": "EGL-informasjon",
        "Description[pl]": "Szczegóły o EGL",
        "Description[pt]": "Informação do EGL",
        "Description[pt_BR]": "Informações sobre EGL",
        "Description[ro]": "Informații EGL",
        "Description[ru]": "Сведения о EGL",
        "Description[sk]": "Informácie o EGL",
        "Description[sl]": "Informacije o EGL",
        "Description[sv]": "Information om EGL",
        "Description[ta]": "EGL விவரங்கள்",
        "Description[tr]": "EGL Bilgisi",
        "Description[uk]": "Інформація про EGL",
        "Description[vi]": "Thông tin về EGL",
        "Description[x-test]": "xxEGL informationxx",
        "Description[zh_CN]": "EGL 信息",
        "Icon": "video-display",
        "Name": "OpenGL (EGL)",
        "Name[ar]": "أوبن‌جي‌إل (EGL)",
        "Name[az]": "OpenGL (EGL)",
        "Name[bg]": "OpenGL (EGL)",
        "Name[ca@valencia]": "OpenGL (EGL)",
        "Name[ca]": "OpenGL (EGL)",
        "Name[cs]": "OpenGL (EGL)",
        "Name[de]": "OpenGL (EGL)",
        "Name[el]": "OpenGL (EGL)",
        "Name[en_GB]": "OpenGL (EGL)",
        "Name[es]": "OpenGL (EGL)",
        "Name[eu]": "OpenGL (EGL)",
        "Name[fi]": "OpenGL (EGL)",
        "Name[fr]": "OpenGL (EGL)",
        "Name[ia]": "OpenGL (EGL)",
        "Name[id]": "OpenGL (EGL)",
        "Name[it]": "OpenGL (EGL)",
        "Name[ja]": "OpenGL (EGL)",
        "Name[ka]": "OpenGL (EGL)",
        "Name[ko]": "OpenGL(EGL)",
        "Name[nl]": "OpenGL (EGL)",
        "Name[nn]": "OpenGL (EGL)",
        "Name[pl]": "OpenGL (EGL)",
        "Name[pt]": "OpenGL (EGL)",
        "Name[pt_BR]": "OpenGL (EGL)",
        "Name[ro]": "OpenGL (EGL)",
        "Name[ru]": "OpenGL (EGL)",
        "Name[sk]": "OpenGL (EGL)",
        "Name[sl]": "OpenGL (EGL)",
        "Name[sv]": "OpenGL (EGL)",
        "Name[ta]": "OpenGL (EGL)",
        "Name[tr]": "OpenGL (EGL)",
        "Name[uk]": "OpenGL (EGL)",
        "Name[vi]": "OpenGL (EGL)",
        "Name[x-test]": "xxOpenGL (EGL)xx",
        "Name[zh_CN]": "OpenGL (EGL)"
    },
    "TryExec": "eglinfo",
    "X-KDE-KInfoCenter-Category": "graphical_information",
    "X-KDE-Keywords": "OpenGL,DRI,3D,VideoCard,Hardware Acceleration,Graphics,EGL",
    "X-KDE-Keywords[az]": "OpenGL,DRI,3D,VideoCard,Hardware Acceleration,Graphics,EGL,Videokart,Avadanlıq sürətləndiricisi,Qrafukalar",
    "X-KDE-Keywords[ca]": "OpenGL,DRI,3D,Targeta de vídeo,Acceleració per maquinari,Gràfics,EGL",
    "X-KDE-Keywords[cs]": "OpenGL,DRI,3D,GrafickáKarta,Hardwarová Akcelerace,Grafika,EGL",
    "X-KDE-Keywords[el]": "OpenGL,DRI,3D,VideoCard,Επιτάχυνση υλικού,Γραφικά,EGL",
    "X-KDE-Keywords[en_GB]": "OpenGL,DRI,3D,VideoCard,Hardware Acceleration,Graphics,EGL",
    "X-KDE-Keywords[es]": "OpenGL,DRI,3D,tarjeta de vídeo,aceleración por hardware,gráficos,EGL",
    "X-KDE-Keywords[fi]": "OpenGL,DRI,3D,näytönohjain,näyttökortti,laitteistokiihdytys,grafiikka,EGL",
    "X-KDE-Keywords[fr]": "OpenGL, DRI, 3D, carte vidéo, accélération matérielle, graphique, EGL",
    "X-KDE-Keywords[ia]": "OpenGL,DRI,3D,Carta de Video,Acceleration Hardware,Graphiches,EGL",
    "X-KDE-Keywords[it]": "OpenGL,DRI,3D,Scheda video,Accelerazione hardware,Grafica,EGL",
    "X-KDE-Keywords[ko]": "OpenGL,DRI,3D,VideoCard,Hardware Acceleration,Graphics,EGL,비디오 카드,그래픽 카드,하드웨어 가속,그래픽",
    "X-KDE-Keywords[nl]": "OpenGL,DRI,3D,Videokaart,Hardware versnelling,Grafisch,EGL",
    "X-KDE-Keywords[nn]": "OpenGL,DRI,3D,skjerm,maskinvareakselerasjon,grafikk,EGL",
    "X-KDE-Keywords[pl]": "OpenGL,DRI,3D,Karta graficzna,Przyspieszenie sprzętowe,Grafika,EGL",
    "X-KDE-Keywords[pt]": "OpenGL,DRI,3D,Placa Gráfica,Aceleração por 'Hardware',Gráficos,EGL",
    "X-KDE-Keywords[pt_BR]": "OpenGL,DRI,3D,placa de vídeo,aceleração por hardware,gráfico,gráfica,EGL",
    "X-KDE-Keywords[sk]": "OpenGL,DRI,grafická karta,hardvérová akcelerácia,grafika,EGL",
    "X-KDE-Keywords[sl]": "OpenGL,DRI,3D,Video kratica,strojno pospeševanje,grafika,EGL",
    "X-KDE-Keywords[sv]": "OpenGL,DRI,3D,Videokort,Maskinvaruacceleration,Grafik,EGL",
    "X-KDE-Keywords[uk]": "OpenGL,DRI,3D,Vulkan,VideoCard,Hardware Acceleration,Graphics,EGL,вулкан,відеокартка,апаратне прискорення,графіка,оупенгл,оупенгеель,дрі,трид,егл,егеель",
    "X-KDE-Keywords[vi]": "OpenGL,DRI,3D,VideoCard,Hardware Acceleration,Graphics,EGL,Bo mạch đồ hoạ,Tăng tốc phần cứng,Đồ hoạ",
    "X-KDE-Keywords[x-test]": "xxOpenGLxx,xxDRIxx,xx3Dxx,xxVideoCardxx,xxHardware Accelerationxx,xxGraphicsxx,xxEGLxx",
    "X-KDE-Keywords[zh_CN]": "OpenGL,DRI,3D,VideoCard,Hardware Acceleration,Graphics,EGL,三维,显卡,硬件,加速,图形,GPU,显示"
}
